Lab 9: Baby Names
…
Question 2

Code

allison_both_sexes <- a_names |> 
  filter(Name == "Allison") |> 
  group_by(Sex_at_Birth, State) |> 
  summarize(sex_count = sum(Count)) |> 
  pivot_wider(names_from = Sex_at_Birth,
              values_from = sex_count) |> 
  mutate(M = coalesce(M, 0))

allison_both_sexes

# A tibble: 51 × 3
   State     F     M
   <chr> <dbl> <dbl>
 1 AK      232     0
 2 AL     1535     0
 3 AR     1198     0
 4 AZ     1880     0
 5 CA    12413     0
 6 CO     1594     0
 7 CT     1099     0
 8 DC      321     0
 9 DE      294     0
10 FL     4455     0
# … with 41 more rows

Question 3

Code

allison_both_sexes |> 
  select(State, F)

# A tibble: 51 × 2
   State     F
   <chr> <dbl>
 1 AK      232
 2 AL     1535
 3 AR     1198
 4 AZ     1880
 5 CA    12413
 6 CO     1594
 7 CT     1099
 8 DC      321
 9 DE      294
10 FL     4455
# … with 41 more rows
…
